…
```r
gapminder %>% 
  group_by(year, continent) %>% 
  summarize(min_life_exp = min(life_exp),
            max_life_exp = max(life_exp),
            mean_life_exp = mean(life_exp))
```

```
## `summarise()` has grouped output by 'year'. You can override using the `.groups` argument.
```

```
## # A tibble: 60 x 5
## # Groups:   year [12]
##    year  continent min_life_exp max_life_exp mean_life_exp
##    <fct> <fct>            <dbl>        <dbl>         <dbl>
##  1 1952  Africa            30           52.7          39.1
##  2 1952  Americas          37.6         68.8          53.3
##  3 1952  Asia              28.8         65.4          46.3
##  4 1952  Europe            43.6         72.7          64.4
##  5 1952  Oceania           69.1         69.4          69.3
##  6 1957  Africa            31.6         58.1          41.3
##  7 1957  Americas          40.7         70.0          56.0
##  8 1957  Asia              30.3         67.8          49.3
##  9 1957  Europe            48.1         73.5          66.7
## 10 1957  Oceania           70.3         70.3          70.3
## # ... with 50 more rows
```
…
**5. How has life expectancy changed between 1952-2007 for each continent?**

```r
gapminder %>% 
  group_by(continent, year) %>% 
  summarize(life_expectancy=mean(life_exp))
```

```
## `summarise()` has grouped output by 'continent'. You can override using the `.groups` argument.
```

```
## # A tibble: 60 x 3
## # Groups:   continent [5]
##    continent year  life_expectancy
##    <fct>     <fct>           <dbl>
##  1 Africa    1952             39.1
##  2 Africa    1957             41.3
##  3 Africa    1962             43.3
##  4 Africa    1967             45.3
##  5 Africa    1972             47.5
##  6 Africa    1977             49.6
##  7 Africa    1982             51.6
##  8 Africa    1987             53.3
##  9 Africa    1992             53.6
## 10 Africa    1997             53.6
## # ... with 50 more rows
```
…
**6. We are interested in the relationship between per capita GDP and life expectancy; i.e. does having more money help you live longer?**

```r
gapminder %>% 
  select(gdp_percap, life_exp) %>% 
  arrange(gdp_percap)
```

```
## # A tibble: 1,704 x 2
##    gdp_percap life_exp
##         <dbl>    <dbl>
##  1       241.     45.0
##  2       278.     46.5
##  3       299.     42.1
##  4       300.     32.5
##  5       312.     42.6
##  6       329.     35.9
##  7       331      36.3
##  8       336.     45.0
##  9       339.     39.0
## 10       344.     38.0
## # ... with 1,694 more rows
```
…
```r
gapminder %>% 
  select(year, pop, country) %>% 
  group_by(country) %>% 
  summarize(pop_growth=diff(pop)) %>% 
  arrange(desc(pop_growth))
```

```
## `summarise()` has grouped output by 'country'. You can override using the `.groups` argument.
```

```
## # A tibble: 1,562 x 2
## # Groups:   country [142]
##    country pop_growth
##    <fct>        <int>
##  1 China    107480000
##  2 China     88780000
##  3 India     87000000
##  4 India     84000000
##  5 China     83754000
##  6 China     81425000
##  7 China     81144473
##  8 China     80935000
##  9 India     80000000
## 10 India     76223784
## # ... with 1,552 more rows
```
…
