…
```r
taxa <- select(homerange, family, taxon, common.name, class, order, genus, species)
taxa
```

```
## # A tibble: 569 x 7
##    family    taxon     common.name       class      order     genus    species  
##    <chr>     <fct>     <chr>             <chr>      <fct>     <chr>    <chr>    
##  1 anguilli~ lake fis~ american eel      actinopte~ anguilli~ anguilla rostrata 
##  2 catostom~ river fi~ blacktail redhor~ actinopte~ cyprinif~ moxosto~ poecilura
##  3 cyprinid~ river fi~ central stonerol~ actinopte~ cyprinif~ campost~ anomalum 
##  4 cyprinid~ river fi~ rosyside dace     actinopte~ cyprinif~ clinost~ funduloi~
##  5 cyprinid~ river fi~ longnose dace     actinopte~ cyprinif~ rhinich~ cataract~
##  6 esocidae  river fi~ muskellunge       actinopte~ esocifor~ esox     masquino~
##  7 gadidae   marine f~ pollack           actinopte~ gadiform~ pollach~ pollachi~
##  8 gadidae   marine f~ saithe            actinopte~ gadiform~ pollach~ virens   
##  9 acanthur~ marine f~ lined surgeonfish actinopte~ percifor~ acanthu~ lineatus 
## 10 acanthur~ marine f~ orangespine unic~ actinopte~ percifor~ naso     lituratus
## # ... with 559 more rows
```
…
**7. Make two new data frames, one which is restricted to carnivores and another that is restricted to herbivores.**  


```r
meateaters <- filter(homerange, trophic.guild == "carnivore")
meateaters
```

```
## # A tibble: 342 x 24
##    taxon common.name class order family genus species primarymethod N    
##    <fct> <chr>       <chr> <fct> <chr>  <chr> <chr>   <chr>         <chr>
##  1 lake~ american e~ acti~ angu~ angui~ angu~ rostra~ telemetry     16   
##  2 rive~ blacktail ~ acti~ cypr~ catos~ moxo~ poecil~ mark-recaptu~ <NA> 
##  3 rive~ central st~ acti~ cypr~ cypri~ camp~ anomal~ mark-recaptu~ 20   
##  4 rive~ rosyside d~ acti~ cypr~ cypri~ clin~ fundul~ mark-recaptu~ 26   
##  5 rive~ longnose d~ acti~ cypr~ cypri~ rhin~ catara~ mark-recaptu~ 17   
##  6 rive~ muskellunge acti~ esoc~ esoci~ esox  masqui~ telemetry     5    
##  7 mari~ pollack     acti~ gadi~ gadid~ poll~ pollac~ telemetry     2    
##  8 mari~ saithe      acti~ gadi~ gadid~ poll~ virens  telemetry     2    
##  9 mari~ giant trev~ acti~ perc~ caran~ cara~ ignobi~ telemetry     4    
## 10 lake~ rock bass   acti~ perc~ centr~ ambl~ rupest~ mark-recaptu~ 16   
## # ... with 332 more rows, and 15 more variables: mean.mass.g <dbl>,
## #   log10.mass <dbl>, alternative.mass.reference <chr>, mean.hra.m2 <dbl>,
## #   log10.hra <dbl>, hra.reference <chr>, realm <chr>, thermoregulation <chr>,
## #   locomotion <chr>, trophic.guild <chr>, dimension <chr>, preymass <dbl>,
## #   log10.preymass <dbl>, PPMR <dbl>, prey.size.reference <chr>
```

```r
planteaters <- filter(homerange, trophic.guild == "herbivore")
planteaters
```

```
## # A tibble: 227 x 24
##    taxon common.name class order family genus species primarymethod N    
##    <fct> <chr>       <chr> <fct> <chr>  <chr> <chr>   <chr>         <chr>
##  1 mari~ lined surg~ acti~ perc~ acant~ acan~ lineat~ direct obser~ <NA> 
##  2 mari~ orangespin~ acti~ perc~ acant~ naso  litura~ telemetry     8    
##  3 mari~ bluespine ~ acti~ perc~ acant~ naso  unicor~ telemetry     7    
##  4 mari~ redlip ble~ acti~ perc~ blenn~ ophi~ atlant~ direct obser~ 20   
##  5 mari~ bermuda ch~ acti~ perc~ kypho~ kyph~ sectat~ telemetry     11   
##  6 mari~ cherubfish  acti~ perc~ pomac~ cent~ argi    direct obser~ <NA> 
##  7 mari~ damselfish  acti~ perc~ pomac~ chro~ chromis direct obser~ <NA> 
##  8 mari~ twinspot d~ acti~ perc~ pomac~ chry~ biocel~ direct obser~ 18   
##  9 mari~ wards dams~ acti~ perc~ pomac~ poma~ wardi   direct obser~ <NA> 
## 10 mari~ australian~ acti~ perc~ pomac~ steg~ apical~ direct obser~ <NA> 
## # ... with 217 more rows, and 15 more variables: mean.mass.g <dbl>,
## #   log10.mass <dbl>, alternative.mass.reference <chr>, mean.hra.m2 <dbl>,
## #   log10.hra <dbl>, hra.reference <chr>, realm <chr>, thermoregulation <chr>,
## #   locomotion <chr>, trophic.guild <chr>, dimension <chr>, preymass <dbl>,
## #   log10.preymass <dbl>, PPMR <dbl>, prey.size.reference <chr>
```
…
**10. As measured by the data, which snake species has the smallest homerange? Show all of your work, please. Look this species up online and tell me about it!** **Snake is found in taxon column** 

```r
snake <- filter(homerange, taxon == "snakes")
snake
```

```
## # A tibble: 41 x 24
##    taxon common.name class order family genus species primarymethod N    
##    <fct> <chr>       <chr> <fct> <chr>  <chr> <chr>   <chr>         <chr>
##  1 snak~ western wo~ rept~ squa~ colub~ carp~ vermis  radiotag      1    
##  2 snak~ eastern wo~ rept~ squa~ colub~ carp~ viridis radiotag      10   
##  3 snak~ racer       rept~ squa~ colub~ colu~ constr~ telemetry     15   
##  4 snak~ yellow bel~ rept~ squa~ colub~ colu~ constr~ telemetry     12   
##  5 snak~ ringneck s~ rept~ squa~ colub~ diad~ puncta~ mark-recaptu~ <NA> 
##  6 snak~ eastern in~ rept~ squa~ colub~ drym~ couperi telemetry     1    
##  7 snak~ great plai~ rept~ squa~ colub~ elap~ guttat~ telemetry     12   
##  8 snak~ western ra~ rept~ squa~ colub~ elap~ obsole~ telemetry     18   
##  9 snak~ hognose sn~ rept~ squa~ colub~ hete~ platir~ telemetry     8    
## 10 snak~ European w~ rept~ squa~ colub~ hier~ viridi~ telemetry     32   
## # ... with 31 more rows, and 15 more variables: mean_mass_g <dbl>,
## #   log10_mass <dbl>, alternative.mass.reference <chr>, mean.hra.m2 <dbl>,
## #   log10.hra <dbl>, hra.reference <chr>, realm <chr>, thermoregulation <chr>,
## #   locomotion <chr>, trophic.guild <chr>, dimension <chr>, preymass <dbl>,
## #   log10.preymass <dbl>, PPMR <dbl>, prey.size.reference <chr>
```
…
