…
2. Use `janitor` to rename the columns and make them easier to use. As part of this cleaning step, change `country`, `isscaap_group_number`, `asfis_species_number`, and `fao_major_fishing_area` to data class factor. 

```r
fisheries <- janitor::clean_names(fisheries)
fisheries
```

```
## # A tibble: 17,692 x 71
##    country common_name isscaap_group_n~ isscaap_taxonom~ asfis_species_n~
##    <chr>   <chr>                  <dbl> <chr>            <chr>           
##  1 Albania Angelshark~               38 Sharks, rays, c~ 10903XXXXX      
##  2 Albania Atlantic b~               36 Tunas, bonitos,~ 1750100101      
##  3 Albania Barracudas~               37 Miscellaneous p~ 17710001XX      
##  4 Albania Blue and r~               45 Shrimps, prawns  2280203101      
##  5 Albania Blue whiti~               32 Cods, hakes, ha~ 1480403301      
##  6 Albania Bluefish                  37 Miscellaneous p~ 1702021301      
##  7 Albania Bogue                     33 Miscellaneous c~ 1703926101      
##  8 Albania Caramote p~               45 Shrimps, prawns  2280100117      
##  9 Albania Catsharks,~               38 Sharks, rays, c~ 10801003XX      
## 10 Albania Common cut~               57 Squids, cuttlef~ 3210200202      
## # ... with 17,682 more rows, and 66 more variables: asfis_species_name <chr>,
## #   fao_major_fishing_area <dbl>, measure <chr>, x1950 <chr>, x1951 <chr>,
## #   x1952 <chr>, x1953 <chr>, x1954 <chr>, x1955 <chr>, x1956 <chr>,
## #   x1957 <chr>, x1958 <chr>, x1959 <chr>, x1960 <chr>, x1961 <chr>,
## #   x1962 <chr>, x1963 <chr>, x1964 <chr>, x1965 <chr>, x1966 <chr>,
## #   x1967 <chr>, x1968 <chr>, x1969 <chr>, x1970 <chr>, x1971 <chr>,
## #   x1972 <chr>, x1973 <chr>, x1974 <chr>, x1975 <chr>, x1976 <chr>,
## #   x1977 <chr>, x1978 <chr>, x1979 <chr>, x1980 <chr>, x1981 <chr>,
## #   x1982 <chr>, x1983 <chr>, x1984 <chr>, x1985 <chr>, x1986 <chr>,
…
fisheries_tidy$catch <- as.numeric(fisheries_tidy$catch)
```

3. How many countries are represented in the data? Provide a count and list their names.

```r
fisheries_tidy %>%
  count(country)
```

```
## # A tibble: 203 x 2
##    country                 n
##  * <fct>               <int>
##  1 Albania               934
##  2 Algeria              1561
##  3 American Samoa        556
##  4 Angola               2119
##  5 Anguilla              129
##  6 Antigua and Barbuda   356
##  7 Argentina            3403
##  8 Aruba                 172
##  9 Australia            8183
## 10 Bahamas               423
## # ... with 193 more rows
```
…
There are 203 countries.

4. Refocus the data only to include only: country, isscaap_taxonomic_group, asfis_species_name, asfis_species_number, year, catch.

```r
fisheries_tidy %>%
  select(country, isscaap_taxonomic_group, asfis_species_name, asfis_species_number, year, catch)
```

```
## # A tibble: 376,771 x 6
##    country isscaap_taxonomic_g~ asfis_species_na~ asfis_species_num~  year catch
##    <fct>   <chr>                <chr>             <fct>              <dbl> <dbl>
##  1 Albania Sharks, rays, chima~ Squatinidae       10903XXXXX          1995    NA
##  2 Albania Sharks, rays, chima~ Squatinidae       10903XXXXX          1996    53
##  3 Albania Sharks, rays, chima~ Squatinidae       10903XXXXX          1997    20
##  4 Albania Sharks, rays, chima~ Squatinidae       10903XXXXX          1998    31
##  5 Albania Sharks, rays, chima~ Squatinidae       10903XXXXX          1999    30
##  6 Albania Sharks, rays, chima~ Squatinidae       10903XXXXX          2000    30
##  7 Albania Sharks, rays, chima~ Squatinidae       10903XXXXX          2001    16
##  8 Albania Sharks, rays, chima~ Squatinidae       10903XXXXX          2002    79
##  9 Albania Sharks, rays, chima~ Squatinidae       10903XXXXX          2003     1
## 10 Albania Sharks, rays, chima~ Squatinidae       10903XXXXX          2004     4
## # ... with 376,761 more rows
```
…
1551 distinct species were caught.

6. Which country had the largest overall catch in the year 2000?

```r
fisheries_tidy %>%
  filter(year == 2000) %>%
  group_by(country)%>%
  summarize(overall_catch = sum(catch, na.rm = T),
            total = n(), .groups= 'keep') %>% 
  arrange(desc(overall_catch))
```

```
## # A tibble: 193 x 3
## # Groups:   country [193]
##    country                  overall_catch total
##    <fct>                            <dbl> <int>
##  1 China                            25899    93
##  2 Russian Federation               12181   192
##  3 United States of America         11762   438
##  4 Japan                             8510   241
##  5 Indonesia                         8341   140
##  6 Peru                              7443    54
##  7 Chile                             6906    91
##  8 India                             6351    98
##  9 Thailand                          6243   127
## 10 Korea, Republic of                6124   265
## # ... with 183 more rows
```
China had the overall largest catch in the year 2000. 25899 total catches.

7. Which country caught the most sardines (_Sardina pilchardus_) between the years 1990-2000?

```r
fisheries_tidy %>%
  filter(asfis_species_name == "Sardina pilchardus", year >= 1990, year <= 2000) %>%
  group_by(country) %>% 
  summarize(total_sardine = sum(catch, na.rm = T),
            total = n(), .groups = "keep") %>% 
  arrange(desc(total_sardine))
```

```
## # A tibble: 37 x 3
## # Groups:   country [37]
##    country               total_sardine total
##    <fct>                         <dbl> <int>
##  1 Morocco                        7470    22
##  2 Spain                          3507    33
##  3 Russian Federation             1639    11
##  4 Ukraine                        1030    11
##  5 France                          966    25
##  6 Portugal                        818    22
##  7 Greece                          528    11
##  8 Italy                           507    11
##  9 Serbia and Montenegro           478     9
## 10 Denmark                         477    11
## # ... with 27 more rows
```
…
<style>
div.blue { background-color:#e6f0ff; border-radius: 5px; padding: 20px;}
</style>
<div class = "blue">

8. Which five countries caught the most cephalopods between 2008-2012?

```r
fisheries_tidy %>% 
  filter(isscaap_taxonomic_group=="Squids, cuttlefishes, octopuses") %>% 
  count(asfis_species_name, sort=T)
```

```
## # A tibble: 35 x 2
##    asfis_species_name              n
##    <chr>                       <int>
##  1 Loliginidae, Ommastrephidae  3072
##  2 Octopodidae                  2935
##  3 Sepiidae, Sepiolidae         2605
##  4 Loligo spp                   1424
##  5 Sepia officinalis             699
##  6 Octopus vulgaris              611
##  7 Illex illecebrosus            460
##  8 Cephalopoda                   421
##  9 Illex argentinus              413
## 10 Loligo gahi                   281
## # ... with 25 more rows
```
…
9. Which species had the highest catch total between 2008-2012? (hint: Osteichthyes is not a species)

```r
fisheries_tidy %>% 
  select(asfis_species_name, year, catch) %>%
  filter(year >= 2008, year <= 2012) %>%
  group_by(asfis_species_name) %>% 
  summarize(catch_total = sum(catch, na.rm = T)) %>%
                                arrange(desc(catch_total))
```

```
## # A tibble: 1,472 x 2
##    asfis_species_name    catch_total
##    <chr>                       <dbl>
##  1 Osteichthyes               107808
##  2 Theragra chalcogramma       41075
##  3 Engraulis ringens           35523
##  4 Katsuwonus pelamis          32153
##  5 Trichiurus lepturus         30400
##  6 Clupea harengus             28527
##  7 Thunnus albacares           20119
##  8 Scomber japonicus           14723
##  9 Gadus morhua                13253
## 10 Thunnus alalunga            12019
## # ... with 1,462 more rows
```
…
10. Use the data to do at least one analysis of your choice.

What country has the greatest species diversity?

```r
fisheries_tidy %>%
  select(country, asfis_species_name) %>% 
  group_by(country) %>% 
  summarize(new_distinct_species = n_distinct(asfis_species_name)) %>%
  arrange(desc(new_distinct_species))
```

```
## # A tibble: 203 x 2
##    country                  new_distinct_species
##    <fct>                                   <int>
##  1 Spain                                     386
##  2 United States of America                  373
##  3 Portugal                                  358
##  4 France                                    308
##  5 Russian Federation                        282
##  6 United Kingdom                            266
##  7 Un. Sov. Soc. Rep.                        240
##  8 Ukraine                                   219
##  9 Japan                                     217
## 10 Korea, Republic of                        212
## # ... with 193 more rows
```
…
